Analysis of absenteeism at work
…
dayofweek <- read_excel("Absenteeism_at_work.xls","Day of Week")

education <- read_excel("Absenteeism_at_work.xls","Education")

month <- read_excel("Absenteeism_at_work.xls","Month")

finaldf <- left_join(absent,reason, by = c("Reason for absence"="Reason for Absense ID")) %>%
  left_join(seasons, by = c("Seasons"="Season ID")) %>%
  left_join(dayofweek, by = c("Day of the week"="Day of Week ID"))  %>%
  left_join(education, by = c("Education"="Education ID")) %>%
  left_join(month, by = c("Month of absence"="Month ID")) 

finaldf

## # A tibble: 740 x 26
##       ID `Reason for absence` `Month of absence` `Day of the week` Seasons
##    <dbl>                <dbl>              <dbl>             <dbl>   <dbl>
##  1    11                   26                  7                 3       1
##  2    36                    0                  7                 3       1
##  3     3                   23                  7                 4       1
##  4     7                    7                  7                 5       1
##  5    11                   23                  7                 5       1
##  6     3                   23                  7                 6       1
##  7    10                   22                  7                 6       1
##  8    20                   23                  7                 6       1
##  9    14                   19                  7                 2       1
## 10     1                   22                  7                 2       1
## # ... with 730 more rows, and 21 more variables: Transportation expense <dbl>,
## #   Distance from Residence to Work <dbl>, Service time <dbl>, Age <dbl>,
## #   Work load Average/day <dbl>, Hit target <dbl>, Disciplinary failure <dbl>,
## #   Education <dbl>, Son <dbl>, Social drinker <dbl>, Social smoker <dbl>,
## #   Pet <dbl>, Weight <dbl>, Height <dbl>, Body mass index <dbl>,
## #   Absenteeism time in hours <dbl>, Absense Reason <chr>,
## #   Season Details <chr>, Day of Week Name <chr>, Education Details <chr>, ...
…
